…
my_levels = c("Monday","Tuesday","Wednesday","Thursday","Friday","Saturday","Sunday")
day_adj = factor(pull(accel_data,day),levels = my_levels)

aggregate_day = accel_data%>%
                mutate(day_adj)%>%
                group_by(week,day_id,day_adj)%>% 
                summarise(sum_of_day = sum(activity_counts))%>%
                arrange(day_adj)
aggregate_day
```

    ## # A tibble: 35 x 4
    ## # Groups:   week, day_id [35]
    ##     week day_id day_adj sum_of_day
    ##    <dbl>  <dbl> <fct>        <dbl>
    ##  1     1      2 Monday      78828.
    ##  2     2      9 Monday     295431 
    ##  3     3     16 Monday     685910 
    ##  4     4     23 Monday     409450 
    ##  5     5     30 Monday     389080 
    ##  6     1      6 Tuesday    307094.
    ##  7     2     13 Tuesday    423245 
    ##  8     3     20 Tuesday    381507 
    ##  9     4     27 Tuesday    319568 
    ## 10     5     34 Tuesday    367824 
    ## # ... with 25 more rows
…
